{
    "menu": [
        {
            "url": "/",
            "name": "Dashboard",
            "slug": "dashboard",
            "icon": "feather icon-home",
            "i18n": "nav.dashboard"
        },
        {
            "url": "",
            "navheader": "OPÉRATIONS",
            "icon": ""
        },
        {
            "url": "/soumissions",
            "name": "Quotes",
            "icon": "feather icon-file-text",
            "i18n": "nav.quotes"
        },
        {
            "url": "/commandes",
            "name": "Orders",
            "icon": "feather icon-shopping-cart",
            "i18n": "nav.orders"
        },
        {
            "url": "",
            "navheader": "CONFIGURATION",
            "icon": ""
        },
        {
            "url": "/clients",
            "name": "Clients",
            "icon": "feather icon-users",
            "i18n": "nav.clients"
        },
        {
            "url": "/employes",
            "name": "Employees",
            "icon": "feather icon-briefcase",
            "i18n": "nav.employees"
        },
        {
            "url": "/services",
            "name": "Services",
            "icon": "feather icon-truck"
        },
        {
            "url": "/fournisseurs",
            "name": "Suppliers",
            "icon": "feather icon-package",
            "i18n": "nav.suppliers"
        }
    ]
}